%YAML 1.1
%TAG !u! tag:unity3d.com,2011:
--- !u!74 &7400000
AnimationClip:
  m_ObjectHideFlags: 0
  m_CorrespondingSourceObject: {fileID: 0}
  m_PrefabInstance: {fileID: 0}
  m_PrefabAsset: {fileID: 0}
  m_Name: Oposum
  serializedVersion: 7
  m_Legacy: 0
  m_Compressed: 0
  m_UseHighQualityCurve: 1
  m_RotationCurves: []
  m_CompressedRotationCurves: []
  m_EulerCurves: []
  m_PositionCurves: []
  m_ScaleCurves: []
  m_FloatCurves: []
  m_PPtrCurves:
  - serializedVersion: 2
    curve:
    - time: 0
      value: {fileID: 1258583083957872083, guid: 845f3db9a86f590438cb3ac7f51f6137,
        type: 3}
    - time: 0.1
      value: {fileID: -5593667151555900945, guid: 845f3db9a86f590438cb3ac7f51f6137,
        type: 3}
    - time: 0.2
      value: {fileID: -3082982176157925023, guid: 845f3db9a86f590438cb3ac7f51f6137,
        type: 3}
    - time: 0.3
      value: {fileID: -5939915628437221382, guid: 845f3db9a86f590438cb3ac7f51f6137,
        type: 3}
    - time: 0.4
      value: {fileID: -4779759287489461066, guid: 845f3db9a86f590438cb3ac7f51f6137,
        type: 3}
    - time: 0.5
      value: {fileID: 8940836700734358342, guid: 845f3db9a86f590438cb3ac7f51f6137,
        type: 3}
    attribute: m_Sprite
    path: Oposum Sprite
    classID: 212
    script: {fileID: 0}
    flags: 2
  m_SampleRate: 20
  m_WrapMode: 0
  m_Bounds:
    m_Center: {x: 0, y: 0, z: 0}
    m_Extent: {x: 0, y: 0, z: 0}
  m_ClipBindingConstant:
    genericBindings:
    - serializedVersion: 2
      path: 3531996906
      attribute: 0
      script: {fileID: 0}
      typeID: 212
      customType: 23
      isPPtrCurve: 1
      isIntCurve: 0
      isSerializeReferenceCurve: 0
    pptrCurveMapping:
    - {fileID: 1258583083957872083, guid: 845f3db9a86f590438cb3ac7f51f6137, type: 3}
    - {fileID: -5593667151555900945, guid: 845f3db9a86f590438cb3ac7f51f6137, type: 3}
    - {fileID: -3082982176157925023, guid: 845f3db9a86f590438cb3ac7f51f6137, type: 3}
    - {fileID: -5939915628437221382, guid: 845f3db9a86f590438cb3ac7f51f6137, type: 3}
    - {fileID: -4779759287489461066, guid: 845f3db9a86f590438cb3ac7f51f6137, type: 3}
    - {fileID: 8940836700734358342, guid: 845f3db9a86f590438cb3ac7f51f6137, type: 3}
  m_AnimationClipSettings:
    serializedVersion: 2
    m_AdditiveReferencePoseClip: {fileID: 0}
    m_AdditiveReferencePoseTime: 0
    m_StartTime: 0
    m_StopTime: 0.55
    m_OrientationOffsetY: 0
    m_Level: 0
    m_CycleOffset: 0
    m_HasAdditiveReferencePose: 0
    m_LoopTime: 1
    m_LoopBlend: 0
    m_LoopBlendOrientation: 0
    m_LoopBlendPositionY: 0
    m_LoopBlendPositionXZ: 0
    m_KeepOriginalOrientation: 0
    m_KeepOriginalPositionY: 1
    m_KeepOriginalPositionXZ: 0
    m_HeightFromFeet: 0
    m_Mirror: 0
  m_EditorCurves: []
  m_EulerEditorCurves: []
  m_HasGenericRootTransform: 0
  m_HasMotionFloatCurves: 0
  m_Events: []
