%YAML 1.1
%TAG !u! tag:unity3d.com,2011:
--- !u!162 &1
EditorUserSettings:
  m_ObjectHideFlags: 0
  serializedVersion: 4
  m_ConfigSettings:
    RecentlyUsedSceneGuid-0:
      value: 050352005202500a5c595b23477b0d4414151d7f2f797f607b791862e7e16c6f
      flags: 0
    RecentlyUsedSceneGuid-1:
      value: 07045703070159025c5f557441755e4443161b7c2a717e67282c1e62b2b56161
      flags: 0
    RecentlyUsedSceneGuid-2:
      value: 0750565f00545b5a5d595c7341260f44171648727b7d24362e781e60e6e16c3e
      flags: 0
    RecentlyUsedSceneGuid-3:
      value: 0557000257010c0b555e542313730844444e1c7c7f7c70637e7d4460e1b63061
      flags: 0
    RecentlyUsedSceneGuid-4:
      value: 020257505c03595f0e565b7248210f44474e1b7d2d7d7061297d1e37e0b8316d
      flags: 0
    RecentlyUsedSceneGuid-5:
      value: 5a060256530c0a0e5c595d7b45750b444e164d2c2d7b7563292c4f35b5b7313b
      flags: 0
    RecentlyUsedSceneGuid-6:
      value: 57500d0204000c0e085d557212760c441015192f7c7b756878711e62bbe2636b
      flags: 0
    RecentlyUsedSceneGuid-7:
      value: 575201535005590255570a214277084412151d7a282c7566752a1963b3b1303e
      flags: 0
    RecentlyUsedSceneGuid-8:
      value: 53065603000d5e0f55085977152059444f15402e2a2e76342b794f31b1e3376b
      flags: 0
    RecentlyUsedSceneGuid-9:
      value: 5154075f53045a0d5b0a5a7212745a44474e48797579236175704e61b6b36d3c
      flags: 0
    vcSharedLogLevel:
      value: 0d5e400f0650
      flags: 0
  m_VCAutomaticAdd: 1
  m_VCDebugCom: 0
  m_VCDebugCmd: 0
  m_VCDebugOut: 0
  m_SemanticMergeMode: 2
  m_DesiredImportWorkerCount: 2
  m_StandbyImportWorkerCount: 2
  m_IdleImportWorkerShutdownDelay: 60000
  m_VCShowFailedCheckout: 1
  m_VCOverwriteFailedCheckoutAssets: 1
  m_VCProjectOverlayIcons: 1
  m_VCHierarchyOverlayIcons: 1
  m_VCOtherOverlayIcons: 1
  m_VCAllowAsyncUpdate: 0
  m_ArtifactGarbageCollection: 1
